Tidy Tuesday 2018 Week 01
…
Filtering data to show only the stats that I have lived in (NY, NH, MA, VA)

df_filtered <- df_long2 %>% 
  filter(State %in% c("Massachusetts", "New York", "New Hampshire", "Virginia"))

df_filtered

## # A tibble: 48 x 3
##    State         Year  Tuition
##    <chr>         <chr>   <dbl>
##  1 Massachusetts 2004    8863.
##  2 Massachusetts 2005    8959.
##  3 Massachusetts 2006    8893.
##  4 Massachusetts 2007    9036.
##  5 Massachusetts 2008    8939.
##  6 Massachusetts 2009   10239.
##  7 Massachusetts 2010   10386.
##  8 Massachusetts 2011   10738.
##  9 Massachusetts 2012   11093.
## 10 Massachusetts 2013   10981.
## #  with 38 more rows
…
